demo/comp/STM32_FPGA/simulation/qsim/CNT32.msim.vcd
$comment
	File created using the following command:
		vcd file CNT32.msim.vcd -direction
$end
$date
	Tue Aug 04 15:59:45 2020
$end
$version
	ModelSim Version 10.1d
$end
$timescale
	1ps
$end
$scope module CNT32_vlg_vec_tst $end
$var reg 1 ! CLK $end
$var reg 1 " CLKBASE $end
$var reg 1 # CLKBASEEN $end
$var reg 1 $ CLKEN $end
$var reg 1 % CLR $end
$var wire 1 & Q [31] $end
$var wire 1 ' Q [30] $end
$var wire 1 ( Q [29] $end
$var wire 1 ) Q [28] $end
$var wire 1 * Q [27] $end
$var wire 1 + Q [26] $end
$var wire 1 , Q [25] $end
$var wire 1 - Q [24] $end
$var wire 1 . Q [23] $end
$var wire 1 / Q [22] $end
$var wire 1 0 Q [21] $end
$var wire 1 1 Q [20] $end
$var wire 1 2 Q [19] $end
$var wire 1 3 Q [18] $end
$var wire 1 4 Q [17] $end
$var wire 1 5 Q [16] $end
$var wire 1 6 Q [15] $end
$var wire 1 7 Q [14] $end
$var wire 1 8 Q [13] $end
$var wire 1 9 Q [12] $end
$var wire 1 : Q [11] $end
$var wire 1 ; Q [10] $end
$var wire 1 < Q [9] $end
$var wire 1 = Q [8] $end
$var wire 1 > Q [7] $end
$var wire 1 ? Q [6] $end
$var wire 1 @ Q [5] $end
$var wire 1 A Q [4] $end
$var wire 1 B Q [3] $end
$var wire 1 C Q [2] $end
$var wire 1 D Q [1] $end
$var wire 1 E Q [0] $end
$var wire 1 F QBASE [31] $end
$var wire 1 G QBASE [30] $end
$var wire 1 H QBASE [29] $end
$var wire 1 I QBASE [28] $end
$var wire 1 J QBASE [27] $end
$var wire 1 K QBASE [26] $end
$var wire 1 L QBASE [25] $end
$var wire 1 M QBASE [24] $end
$var wire 1 N QBASE [23] $end
$var wire 1 O QBASE [22] $end
$var wire 1 P QBASE [21] $end
$var wire 1 Q QBASE [20] $end
$var wire 1 R QBASE [19] $end
$var wire 1 S QBASE [18] $end
$var wire 1 T QBASE [17] $end
$var wire 1 U QBASE [16] $end
$var wire 1 V QBASE [15] $end
$var wire 1 W QBASE [14] $end
$var wire 1 X QBASE [13] $end
$var wire 1 Y QBASE [12] $end
$var wire 1 Z QBASE [11] $end
$var wire 1 [ QBASE [10] $end
$var wire 1 \ QBASE [9] $end
$var wire 1 ] QBASE [8] $end
$var wire 1 ^ QBASE [7] $end
$var wire 1 _ QBASE [6] $end
$var wire 1 ` QBASE [5] $end
$var wire 1 a QBASE [4] $end
$var wire 1 b QBASE [3] $end
$var wire 1 c QBASE [2] $end
$var wire 1 d QBASE [1] $end
$var wire 1 e QBASE [0] $end
$var wire 1 f sampler $end
$scope module i1 $end
$var wire 1 g gnd $end
$var wire 1 h vcc $end
$var wire 1 i unknown $end
$var tri1 1 j devclrn $end
$var tri1 1 k devpor $end
$var tri1 1 l devoe $end
$var wire 1 m Q[0]~output_o $end
$var wire 1 n Q[1]~output_o $end
$var wire 1 o Q[2]~output_o $end
$var wire 1 p Q[3]~output_o $end
$var wire 1 q Q[4]~output_o $end
$var wire 1 r Q[5]~output_o $end
$var wire 1 s Q[6]~output_o $end
$var wire 1 t Q[7]~output_o $end
$var wire 1 u Q[8]~output_o $end
$var wire 1 v Q[9]~output_o $end
$var wire 1 w Q[10]~output_o $end
$var wire 1 x Q[11]~output_o $end
$var wire 1 y Q[12]~output_o $end
$var wire 1 z Q[13]~output_o $end
$var wire 1 { Q[14]~output_o $end
$var wire 1 | Q[15]~output_o $end
$var wire 1 } Q[16]~output_o $end
$var wire 1 ~ Q[17]~output_o $end
$var wire 1 !! Q[18]~output_o $end
$var wire 1 "! Q[19]~output_o $end
$var wire 1 #! Q[20]~output_o $end
$var wire 1 $! Q[21]~output_o $end
$var wire 1 %! Q[22]~output_o $end
$var wire 1 &! Q[23]~output_o $end
$var wire 1 '! Q[24]~output_o $end
$var wire 1 (! Q[25]~output_o $end
$var wire 1 )! Q[26]~output_o $end
$var wire 1 *! Q[27]~output_o $end
$var wire 1 +! Q[28]~output_o $end
$var wire 1 ,! Q[29]~output_o $end
$var wire 1 -! Q[30]~output_o $end
$var wire 1 .! Q[31]~output_o $end
$var wire 1 /! QBASE[0]~output_o $end
$var wire 1 0! QBASE[1]~output_o $end
$var wire 1 1! QBASE[2]~output_o $end
$var wire 1 2! QBASE[3]~output_o $end
$var wire 1 3! QBASE[4]~output_o $end
$var wire 1 4! QBASE[5]~output_o $end
$var wire 1 5! QBASE[6]~output_o $end
$var wire 1 6! QBASE[7]~output_o $end
$var wire 1 7! QBASE[8]~output_o $end
$var wire 1 8! QBASE[9]~output_o $end
$var wire 1 9! QBASE[10]~output_o $end
$var wire 1 :! QBASE[11]~output_o $end
$var wire 1 ;! QBASE[12]~output_o $end
$var wire 1 <! QBASE[13]~output_o $end
$var wire 1 =! QBASE[14]~output_o $end
$var wire 1 >! QBASE[15]~output_o $end
$var wire 1 ?! QBASE[16]~output_o $end
$var wire 1 @! QBASE[17]~output_o $end
$var wire 1 A! QBASE[18]~output_o $end
$var wire 1 B! QBASE[19]~output_o $end
$var wire 1 C! QBASE[20]~output_o $end
$var wire 1 D! QBASE[21]~output_o $end
$var wire 1 E! QBASE[22]~output_o $end
$var wire 1 F! QBASE[23]~output_o $end
$var wire 1 G! QBASE[24]~output_o $end
$var wire 1 H! QBASE[25]~output_o $end
$var wire 1 I! QBASE[26]~output_o $end
$var wire 1 J! QBASE[27]~output_o $end
$var wire 1 K! QBASE[28]~output_o $end
$var wire 1 L! QBASE[29]~output_o $end
$var wire 1 M! QBASE[30]~output_o $end
$var wire 1 N! QBASE[31]~output_o $end
$var wire 1 O! CLK~input_o $end
$var wire 1 P! CLK~inputclkctrl_outclk $end
$var wire 1 Q! A:Q1[0]~1_combout $end
$var wire 1 R! CLR~input_o $end
$var wire 1 S! CLR~inputclkctrl_outclk $end
$var wire 1 T! CLKEN~input_o $end
$var wire 1 U! CLKBASEEN~input_o $end
$var wire 1 V! A:Q1[0]~0_combout $end
$var wire 1 W! A:Q1[0]~q $end
$var wire 1 X! A:Q1[1]~1_combout $end
$var wire 1 Y! A:Q1[1]~q $end
$var wire 1 Z! A:Q1[1]~2 $end
$var wire 1 [! A:Q1[2]~1_combout $end
$var wire 1 \! A:Q1[2]~q $end
$var wire 1 ]! A:Q1[2]~2 $end
$var wire 1 ^! A:Q1[3]~1_combout $end
$var wire 1 _! A:Q1[3]~q $end
$var wire 1 `! A:Q1[3]~2 $end
$var wire 1 a! A:Q1[4]~1_combout $end
$var wire 1 b! A:Q1[4]~q $end
$var wire 1 c! A:Q1[4]~2 $end
$var wire 1 d! A:Q1[5]~1_combout $end
$var wire 1 e! A:Q1[5]~q $end
$var wire 1 f! A:Q1[5]~2 $end
$var wire 1 g! A:Q1[6]~1_combout $end
$var wire 1 h! A:Q1[6]~q $end
$var wire 1 i! A:Q1[6]~2 $end
$var wire 1 j! A:Q1[7]~1_combout $end
$var wire 1 k! A:Q1[7]~q $end
$var wire 1 l! A:Q1[7]~2 $end
$var wire 1 m! A:Q1[8]~1_combout $end
$var wire 1 n! A:Q1[8]~q $end
$var wire 1 o! A:Q1[8]~2 $end
$var wire 1 p! A:Q1[9]~1_combout $end
$var wire 1 q! A:Q1[9]~q $end
$var wire 1 r! A:Q1[9]~2 $end
$var wire 1 s! A:Q1[10]~1_combout $end
$var wire 1 t! A:Q1[10]~q $end
$var wire 1 u! A:Q1[10]~2 $end
$var wire 1 v! A:Q1[11]~1_combout $end
$var wire 1 w! A:Q1[11]~q $end
$var wire 1 x! A:Q1[11]~2 $end
$var wire 1 y! A:Q1[12]~1_combout $end
$var wire 1 z! A:Q1[12]~q $end
$var wire 1 {! A:Q1[12]~2 $end
$var wire 1 |! A:Q1[13]~1_combout $end
$var wire 1 }! A:Q1[13]~q $end
$var wire 1 ~! A:Q1[13]~2 $end
$var wire 1 !" A:Q1[14]~1_combout $end
$var wire 1 "" A:Q1[14]~q $end
$var wire 1 #" A:Q1[14]~2 $end
$var wire 1 $" A:Q1[15]~1_combout $end
$var wire 1 %" A:Q1[15]~q $end
$var wire 1 &" A:Q1[15]~2 $end
$var wire 1 '" A:Q1[16]~1_combout $end
$var wire 1 (" A:Q1[16]~q $end
$var wire 1 )" A:Q1[16]~2 $end
$var wire 1 *" A:Q1[17]~1_combout $end
$var wire 1 +" A:Q1[17]~q $end
$var wire 1 ," A:Q1[17]~2 $end
$var wire 1 -" A:Q1[18]~1_combout $end
$var wire 1 ." A:Q1[18]~q $end
$var wire 1 /" A:Q1[18]~2 $end
$var wire 1 0" A:Q1[19]~1_combout $end
$var wire 1 1" A:Q1[19]~q $end
$var wire 1 2" A:Q1[19]~2 $end
$var wire 1 3" A:Q1[20]~1_combout $end
$var wire 1 4" A:Q1[20]~q $end
$var wire 1 5" A:Q1[20]~2 $end
$var wire 1 6" A:Q1[21]~1_combout $end
$var wire 1 7" A:Q1[21]~q $end
$var wire 1 8" A:Q1[21]~2 $end
$var wire 1 9" A:Q1[22]~1_combout $end
$var wire 1 :" A:Q1[22]~q $end
$var wire 1 ;" A:Q1[22]~2 $end
$var wire 1 <" A:Q1[23]~1_combout $end
$var wire 1 =" A:Q1[23]~q $end
$var wire 1 >" A:Q1[23]~2 $end
$var wire 1 ?" A:Q1[24]~1_combout $end
$var wire 1 @" A:Q1[24]~q $end
$var wire 1 A" A:Q1[24]~2 $end
$var wire 1 B" A:Q1[25]~1_combout $end
$var wire 1 C" A:Q1[25]~q $end
$var wire 1 D" A:Q1[25]~2 $end
$var wire 1 E" A:Q1[26]~1_combout $end
$var wire 1 F" A:Q1[26]~q $end
$var wire 1 G" A:Q1[26]~2 $end
$var wire 1 H" A:Q1[27]~1_combout $end
$var wire 1 I" A:Q1[27]~q $end
$var wire 1 J" A:Q1[27]~2 $end
$var wire 1 K" A:Q1[28]~1_combout $end
$var wire 1 L" A:Q1[28]~q $end
$var wire 1 M" A:Q1[28]~2 $end
$var wire 1 N" A:Q1[29]~1_combout $end
$var wire 1 O" A:Q1[29]~q $end
$var wire 1 P" A:Q1[29]~2 $end
$var wire 1 Q" A:Q1[30]~1_combout $end
$var wire 1 R" A:Q1[30]~q $end
$var wire 1 S" A:Q1[30]~2 $end
$var wire 1 T" A:Q1[31]~1_combout $end
$var wire 1 U" A:Q1[31]~q $end
$var wire 1 V" CLKBASE~input_o $end
$var wire 1 W" CLKBASE~inputclkctrl_outclk $end
$var wire 1 X" B:Q1BASE[0]~0_combout $end
$var wire 1 Y" B:Q1BASE[0]~q $end
$var wire 1 Z" B:Q1BASE[1]~1_combout $end
$var wire 1 [" B:Q1BASE[1]~q $end
$var wire 1 \" B:Q1BASE[1]~2 $end
$var wire 1 ]" B:Q1BASE[2]~1_combout $end
$var wire 1 ^" B:Q1BASE[2]~q $end
$var wire 1 _" B:Q1BASE[2]~2 $end
$var wire 1 `" B:Q1BASE[3]~1_combout $end
$var wire 1 a" B:Q1BASE[3]~q $end
$var wire 1 b" B:Q1BASE[3]~2 $end
$var wire 1 c" B:Q1BASE[4]~1_combout $end
$var wire 1 d" B:Q1BASE[4]~q $end
$var wire 1 e" B:Q1BASE[4]~2 $end
$var wire 1 f" B:Q1BASE[5]~1_combout $end
$var wire 1 g" B:Q1BASE[5]~q $end
$var wire 1 h" B:Q1BASE[5]~2 $end
$var wire 1 i" B:Q1BASE[6]~1_combout $end
$var wire 1 j" B:Q1BASE[6]~q $end
$var wire 1 k" B:Q1BASE[6]~2 $end
$var wire 1 l" B:Q1BASE[7]~1_combout $end
$var wire 1 m" B:Q1BASE[7]~q $end
$var wire 1 n" B:Q1BASE[7]~2 $end
$var wire 1 o" B:Q1BASE[8]~1_combout $end
$var wire 1 p" B:Q1BASE[8]~q $end
$var wire 1 q" B:Q1BASE[8]~2 $end
$var wire 1 r" B:Q1BASE[9]~1_combout $end
$var wire 1 s" B:Q1BASE[9]~q $end
$var wire 1 t" B:Q1BASE[9]~2 $end
$var wire 1 u" B:Q1BASE[10]~1_combout $end
$var wire 1 v" B:Q1BASE[10]~q $end
$var wire 1 w" B:Q1BASE[10]~2 $end
$var wire 1 x" B:Q1BASE[11]~1_combout $end
$var wire 1 y" B:Q1BASE[11]~q $end
$var wire 1 z" B:Q1BASE[11]~2 $end
$var wire 1 {" B:Q1BASE[12]~1_combout $end
$var wire 1 |" B:Q1BASE[12]~q $end
$var wire 1 }" B:Q1BASE[12]~2 $end
$var wire 1 ~" B:Q1BASE[13]~1_combout $end
$var wire 1 !# B:Q1BASE[13]~q $end
$var wire 1 "# B:Q1BASE[13]~2 $end
$var wire 1 ## B:Q1BASE[14]~1_combout $end
$var wire 1 $# B:Q1BASE[14]~q $end
$var wire 1 %# B:Q1BASE[14]~2 $end
$var wire 1 &# B:Q1BASE[15]~1_combout $end
$var wire 1 '# B:Q1BASE[15]~q $end
$var wire 1 (# B:Q1BASE[15]~2 $end
$var wire 1 )# B:Q1BASE[16]~1_combout $end
$var wire 1 *# B:Q1BASE[16]~q $end
$var wire 1 +# B:Q1BASE[16]~2 $end
$var wire 1 ,# B:Q1BASE[17]~1_combout $end
$var wire 1 -# B:Q1BASE[17]~q $end
$var wire 1 .# B:Q1BASE[17]~2 $end
$var wire 1 /# B:Q1BASE[18]~1_combout $end
$var wire 1 0# B:Q1BASE[18]~q $end
$var wire 1 1# B:Q1BASE[18]~2 $end
$var wire 1 2# B:Q1BASE[19]~1_combout $end
$var wire 1 3# B:Q1BASE[19]~q $end
$var wire 1 4# B:Q1BASE[19]~2 $end
$var wire 1 5# B:Q1BASE[20]~1_combout $end
$var wire 1 6# B:Q1BASE[20]~q $end
$var wire 1 7# B:Q1BASE[20]~2 $end
$var wire 1 8# B:Q1BASE[21]~1_combout $end
$var wire 1 9# B:Q1BASE[21]~q $end
$var wire 1 :# B:Q1BASE[21]~2 $end
$var wire 1 ;# B:Q1BASE[22]~1_combout $end
$var wire 1 <# B:Q1BASE[22]~q $end
$var wire 1 =# B:Q1BASE[22]~2 $end
$var wire 1 ># B:Q1BASE[23]~1_combout $end
$var wire 1 ?# B:Q1BASE[23]~q $end
$var wire 1 @# B:Q1BASE[23]~2 $end
$var wire 1 A# B:Q1BASE[24]~1_combout $end
$var wire 1 B# B:Q1BASE[24]~q $end
$var wire 1 C# B:Q1BASE[24]~2 $end
$var wire 1 D# B:Q1BASE[25]~1_combout $end
$var wire 1 E# B:Q1BASE[25]~q $end
$var wire 1 F# B:Q1BASE[25]~2 $end
$var wire 1 G# B:Q1BASE[26]~1_combout $end
$var wire 1 H# B:Q1BASE[26]~q $end
$var wire 1 I# B:Q1BASE[26]~2 $end
$var wire 1 J# B:Q1BASE[27]~1_combout $end
$var wire 1 K# B:Q1BASE[27]~q $end
$var wire 1 L# B:Q1BASE[27]~2 $end
$var wire 1 M# B:Q1BASE[28]~1_combout $end
$var wire 1 N# B:Q1BASE[28]~q $end
$var wire 1 O# B:Q1BASE[28]~2 $end
$var wire 1 P# B:Q1BASE[29]~1_combout $end
$var wire 1 Q# B:Q1BASE[29]~q $end
$var wire 1 R# B:Q1BASE[29]~2 $end
$var wire 1 S# B:Q1BASE[30]~1_combout $end
$var wire 1 T# B:Q1BASE[30]~q $end
$var wire 1 U# B:Q1BASE[30]~2 $end
$var wire 1 V# B:Q1BASE[31]~1_combout $end
$var wire 1 W# B:Q1BASE[31]~q $end
$upscope $end
$upscope $end
$enddefinitions $end
#0
$dumpvars
0!
0"
1#
1$
1%
0E
0D
0C
0B
0A
0@
0?
0>
0=
0<
0;
0:
09
08
07
06
05
04
03
02
01
00
0/
0.
0-
0,
0+
0*
0)
0(
0'
0&
0e
0d
0c
0b
0a
0`
0_
0^
0]
0\
0[
0Z
0Y
0X
0W
0V
0U
0T
0S
0R
0Q
0P
0O
0N
0M
0L
0K
0J
0I
0H
0G
0F
xf
0g
1h
xi
1j
1k
1l
0m
0n
0o
0p
0q
0r
0s
0t
0u
0v
0w
0x
0y
0z
0{
0|
0}
0~
0!!
0"!
0#!
0$!
0%!
0&!
0'!
0(!
0)!
0*!
0+!
0,!
0-!
0.!
0/!
00!
01!
02!
03!
04!
05!
06!
07!
08!
09!
0:!
0;!
0<!
0=!
0>!
0?!
0@!
0A!
0B!
0C!
0D!
0E!
0F!
0G!
0H!
0I!
0J!
0K!
0L!
0M!
0N!
0O!
0P!
1Q!
1R!
1S!
1T!
1U!
1V!
0W!
0X!
0Y!
0Z!
0[!
0\!
1]!
0^!
0_!
0`!
0a!
0b!
1c!
0d!
0e!
0f!
0g!
0h!
1i!
0j!
0k!
0l!
0m!
0n!
1o!
0p!
0q!
0r!
0s!
0t!
1u!
0v!
0w!
0x!
0y!
0z!
1{!
0|!
0}!
0~!
0!"
0""
1#"
0$"
0%"
0&"
0'"
0("
1)"
0*"
0+"
0,"
0-"
0."
1/"
00"
01"
02"
03"
04"
15"
06"
07"
08"
09"
0:"
1;"
0<"
0="
0>"
0?"
0@"
1A"
0B"
0C"
0D"
0E"
0F"
1G"
0H"
0I"
0J"
0K"
0L"
1M"
0N"
0O"
0P"
0Q"
0R"
1S"
0T"
0U"
0V"
0W"
1X"
0Y"
0Z"
0["
0\"
0]"
0^"
1_"
0`"
0a"
0b"
0c"
0d"
1e"
0f"
0g"
0h"
0i"
0j"
1k"
0l"
0m"
0n"
0o"
0p"
1q"
0r"
0s"
0t"
0u"
0v"
1w"
0x"
0y"
0z"
0{"
0|"
1}"
0~"
0!#
0"#
0##
0$#
1%#
0&#
0'#
0(#
0)#
0*#
1+#
0,#
0-#
0.#
0/#
00#
11#
02#
03#
04#
05#
06#
17#
08#
09#
0:#
0;#
0<#
1=#
0>#
0?#
0@#
0A#
0B#
1C#
0D#
0E#
0F#
0G#
0H#
1I#
0J#
0K#
0L#
0M#
0N#
1O#
0P#
0Q#
0R#
0S#
0T#
1U#
0V#
0W#
$end
#3333
1!
1O!
1P!
0f
1W!
1X!
0Q!
1m
1E
#5000
1"
1V"
1W"
1f
1Y"
1Z"
0X"
1/!
1e
#6666
0!
0O!
0P!
0f
#9999
1!
1O!
1P!
1f
1Y!
0W!
1Q!
1n
0m
1D
0E
#10000
0"
0V"
0W"
0f
#13332
0!
0O!
0P!
1f
#15000
1"
1V"
1W"
0f
1["
0Y"
1X"
10!
0/!
1d
0e
#16665
1!
1O!
1P!
1f
1W!
1Z!
0X!
0Q!
1m
1E
1[!
#19998
0!
0O!
0P!
0f
#20000
0"
0V"
0W"
1f
#23331
1!
1O!
1P!
0f
1\!
0Y!
0W!
0]!
0[!
0Z!
1Q!
1o
0n
0m
1C
0D
0E
1^!
1]!
1[!
0^!
#25000
1"
1V"
1W"
1f
1Y"
1\"
0Z"
0X"
1/!
1e
1]"
#26664
0!
0O!
0P!
0f
#29997
1!
1O!
1P!
1f
1W!
1X!
0Q!
1m
1E
#30000
0"
0V"
0W"
0f
#33330
0!
0O!
0P!
1f
#35000
1"
1V"
1W"
0f
1^"
0["
0Y"
0_"
0]"
0\"
1X"
11!
00!
0/!
1c
0d
0e
1`"
1_"
1]"
0`"
#36663
1!
1O!
1P!
1f
1Y!
0W!
1Q!
1n
0m
1D
0E
#39996
0!
0O!
0P!
0f
#40000
0"
0V"
0W"
1f
#43329
1!
1O!
1P!
0f
1W!
1Z!
0X!
0Q!
1m
1E
0]!
0[!
1^!
#45000
1"
1V"
1W"
1f
1Y"
1Z"
0X"
1/!
1e
#46662
0!
0O!
0P!
0f
#49995
1!
1O!
1P!
1f
1_!
0\!
0Y!
0W!
1`!
0^!
1]!
1[!
0Z!
1Q!
1p
0o
0n
0m
1B
0C
0D
0E
1a!
0`!
1^!
0[!
0a!
#50000
0"
0V"
0W"
0f
#53328
0!
0O!
0P!
1f
#55000
1"
1V"
1W"
0f
1["
0Y"
1X"
10!
0/!
1d
0e
#56661
1!
1O!
1P!
1f
1W!
1X!
0Q!
1m
1E
#59994
0!
0O!
0P!
0f
#60000
0"
0V"
0W"
1f
#63327
1!
1O!
1P!
0f
1Y!
0W!
1Q!
1n
0m
1D
0E
#65000
1"
1V"
1W"
1f
1Y"
1\"
0Z"
0X"
1/!
1e
0_"
0]"
1`"
#66660
0!
0O!
0P!
0f
#69993
1!
1O!
1P!
1f
1W!
1Z!
0X!
0Q!
1m
1E
1[!
#70000
0#
0$
0"
0U!
0T!
0V"
0W"
0f
0V!
#73326
0!
0O!
0P!
1f
#75000
1"
1V"
1W"
0f
#76659
1!
1O!
1P!
1f
#79992
0!
0O!
0P!
0f
#80000
0"
0V"
0W"
1f
#83325
1!
1O!
1P!
0f
#85000
1"
1V"
1W"
1f
#86658
0!
0O!
0P!
0f
#89991
1!
1O!
1P!
1f
#90000
0"
0V"
0W"
0f
#93324
0!
0O!
0P!
1f
#95000
1"
1V"
1W"
0f
#96657
1!
1O!
1P!
1f
#99990
0!
0O!
0P!
0f
#100000
0"
0V"
0W"
1f
#103323
1!
1O!
1P!
0f
#105000
1"
1V"
1W"
1f
#106656
0!
0O!
0P!
0f
#109989
1!
1O!
1P!
1f
#110000
0"
0V"
0W"
0f
#113322
0!
0O!
0P!
1f
#115000
1"
1V"
1W"
0f
#116655
1!
1O!
1P!
1f
#119988
0!
0O!
0P!
0f
#120000
0"
0V"
0W"
1f
#123321
1!
1O!
1P!
0f
#125000
1"
1V"
1W"
1f
#126654
0!
0O!
0P!
0f
#129987
1!
1O!
1P!
1f
#130000
1#
1$
0"
1U!
1T!
0V"
0W"
0f
1V!
#133320
0!
0O!
0P!
1f
#135000
1"
1V"
1W"
0f
1a"
0^"
0["
0Y"
1b"
0`"
1_"
1]"
0\"
1X"
12!
01!
00!
0/!
1b
0c
0d
0e
1c"
0b"
1`"
0]"
0c"
#136653
1!
1O!
1P!
1f
1\!
0Y!
0W!
0]!
0[!
0Z!
1Q!
1o
0n
0m
1C
0D
0E
1`!
0^!
1]!
1[!
1a!
0`!
1^!
0a!
#139986
0!
0O!
0P!
0f
#140000
0"
0V"
0W"
1f
#143319
1!
1O!
1P!
0f
1W!
1X!
0Q!
1m
1E
#145000
1"
1V"
1W"
1f
1Y"
1Z"
0X"
1/!
1e
#146652
0!
0O!
0P!
0f
#149985
1!
1O!
1P!
1f
1Y!
0W!
1Q!
1n
0m
1D
0E
#150000
0%
0"
0R!
0V"
0S!
0W"
0f
0a"
0Y"
0_!
0\!
0Y!
0`"
0Z"
1X"
0^!
0[!
0X!
02!
0/!
0p
0o
0n
0b
0e
0B
0C
0D
#153318
0!
0O!
0P!
1f
#155000
1"
1V"
1W"
0f
#156651
1!
1O!
1P!
1f
#159984
0!
0O!
0P!
0f
#160000
0"
0V"
0W"
1f
#163317
1!
1O!
1P!
0f
#165000
1"
1V"
1W"
1f
#166650
0!
0O!
0P!
0f
#169983
1!
1O!
1P!
1f
#170000
0"
0V"
0W"
0f
#173316
0!
0O!
0P!
1f
#175000
1"
1V"
1W"
0f
#176649
1!
1O!
1P!
1f
#179982
0!
0O!
0P!
0f
#180000
1%
0"
1R!
0V"
1S!
0W"
1f
#183315
1!
1O!
1P!
0f
1W!
1X!
0Q!
1m
1E
#185000
1"
1V"
1W"
1f
1Y"
1Z"
0X"
1/!
1e
#186648
0!
0O!
0P!
0f
#189981
1!
1O!
1P!
1f
1Y!
0W!
1Q!
1n
0m
1D
0E
#190000
0"
0V"
0W"
0f
#193314
0!
0O!
0P!
1f
#195000
1"
1V"
1W"
0f
1["
0Y"
1X"
10!
0/!
1d
0e
#196647
1!
1O!
1P!
1f
1W!
1Z!
0X!
0Q!
1m
1E
1[!
#199980
0!
0O!
0P!
0f
#200000
0"
0V"
0W"
1f
#203313
1!
1O!
1P!
0f
1\!
0Y!
0W!
0]!
0[!
0Z!
1Q!
1o
0n
0m
1C
0D
0E
1^!
1]!
1[!
0^!
#205000
1"
1V"
1W"
1f
1Y"
1\"
0Z"
0X"
1/!
1e
1]"
#206646
0!
0O!
0P!
0f
#209979
1!
1O!
1P!
1f
1W!
1X!
0Q!
1m
1E
#210000
0"
0V"
0W"
0f
#213312
0!
0O!
0P!
1f
#215000
1"
1V"
1W"
0f
1^"
0["
0Y"
0_"
0]"
0\"
1X"
11!
00!
0/!
1c
0d
0e
1`"
1_"
1]"
0`"
#216645
1!
1O!
1P!
1f
1Y!
0W!
1Q!
1n
0m
1D
0E
#219978
0!
0O!
0P!
0f
#220000
0"
0V"
0W"
1f
#223311
1!
1O!
1P!
0f
1W!
1Z!
0X!
0Q!
1m
1E
0]!
0[!
1^!
#225000
1"
1V"
1W"
1f
1Y"
1Z"
0X"
1/!
1e
#226644
0!
0O!
0P!
0f
#229977
1!
1O!
1P!
1f
1_!
0\!
0Y!
0W!
1`!
0^!
1]!
1[!
0Z!
1Q!
1p
0o
0n
0m
1B
0C
0D
0E
1a!
0`!
1^!
0[!
0a!
#230000
0"
0V"
0W"
0f
#233310
0!
0O!
0P!
1f
#235000
1"
1V"
1W"
0f
1["
0Y"
1X"
10!
0/!
1d
0e
#236643
1!
1O!
1P!
1f
1W!
1X!
0Q!
1m
1E
#239976
0!
0O!
0P!
0f
#240000
0"
0V"
0W"
1f
#243309
1!
1O!
1P!
0f
1Y!
0W!
1Q!
1n
0m
1D
0E
#245000
1"
1V"
1W"
1f
1Y"
1\"
0Z"
0X"
1/!
1e
0_"
0]"
1`"
#246642
0!
0O!
0P!
0f
#249975
1!
1O!
1P!
1f
1W!
1Z!
0X!
0Q!
1m
1E
1[!
#250000
0"
0V"
0W"
0f
#253308
0!
0O!
0P!
1f
#255000
1"
1V"
1W"
0f
1a"
0^"
0["
0Y"
1b"
0`"
1_"
1]"
0\"
1X"
12!
01!
00!
0/!
1b
0c
0d
0e
1c"
0b"
1`"
0]"
0c"
#256641
1!
1O!
1P!
1f
1\!
0Y!
0W!
0]!
0[!
0Z!
1Q!
1o
0n
0m
1C
0D
0E
1`!
0^!
1]!
1[!
1a!
0`!
1^!
0a!
#259974
0!
0O!
0P!
0f
#260000
0"
0V"
0W"
1f
#263307
1!
1O!
1P!
0f
1W!
1X!
0Q!
1m
1E
#265000
1"
1V"
1W"
1f
1Y"
1Z"
0X"
1/!
1e
#266640
0!
0O!
0P!
0f
#269973
1!
1O!
1P!
1f
1Y!
0W!
1Q!
1n
0m
1D
0E
#270000
0"
0V"
0W"
0f
#273306
0!
0O!
0P!
1f
#275000
1"
1V"
1W"
0f
1["
0Y"
1X"
10!
0/!
1d
0e
#276639
1!
1O!
1P!
1f
1W!
1Z!
0X!
0Q!
1m
1E
0]!
0[!
1`!
0^!
1a!
#279972
0!
0O!
0P!
0f
#280000
0"
0V"
0W"
1f
#283305
1!
1O!
1P!
0f
1b!
0_!
0\!
0Y!
0W!
0c!
0a!
0`!
1^!
1]!
1[!
0Z!
1Q!
1q
0p
0o
0n
0m
1A
0B
0C
0D
0E
1d!
1c!
1a!
0^!
0[!
0d!
#285000
1"
1V"
1W"
1f
1Y"
1\"
0Z"
0X"
1/!
1e
1]"
#286638
0!
0O!
0P!
0f
#289971
1!
1O!
1P!
1f
1W!
1X!
0Q!
1m
1E
#290000
0"
0V"
0W"
0f
#293304
0!
0O!
0P!
1f
#295000
1"
1V"
1W"
0f
1^"
0["
0Y"
0_"
0]"
0\"
1X"
11!
00!
0/!
1c
0d
0e
1b"
0`"
1_"
1]"
1c"
0b"
1`"
0c"
#296637
1!
1O!
1P!
1f
1Y!
0W!
1Q!
1n
0m
1D
0E
#299970
0!
0O!
0P!
0f
#300000
0"
0V"
0W"
1f
#303303
1!
1O!
1P!
0f
1W!
1Z!
0X!
0Q!
1m
1E
1[!
#305000
1"
1V"
1W"
1f
1Y"
1Z"
0X"
1/!
1e
#306636
0!
0O!
0P!
0f
#309969
1!
1O!
1P!
1f
1\!
0Y!
0W!
0]!
0[!
0Z!
1Q!
1o
0n
0m
1C
0D
0E
1^!
1]!
1[!
0^!
#310000
0"
0V"
0W"
0f
#313302
0!
0O!
0P!
1f
#315000
1"
1V"
1W"
0f
1["
0Y"
1X"
10!
0/!
1d
0e
#316635
1!
1O!
1P!
1f
1W!
1X!
0Q!
1m
1E
#319968
0!
0O!
0P!
0f
#320000
0"
0V"
0W"
1f
#323301
1!
1O!
1P!
0f
1Y!
0W!
1Q!
1n
0m
1D
0E
#325000
1"
1V"
1W"
1f
1Y"
1\"
0Z"
0X"
1/!
1e
0_"
0]"
1b"
0`"
1c"
#326634
0!
0O!
0P!
0f
#329967
1!
1O!
1P!
1f
1W!
1Z!
0X!
0Q!
1m
1E
0]!
0[!
1^!
#330000
0"
0V"
0W"
0f
#333300
0!
0O!
0P!
1f
#335000
1"
1V"
1W"
0f
1d"
0a"
0^"
0["
0Y"
0e"
0c"
0b"
1`"
1_"
1]"
0\"
1X"
13!
02!
01!
00!
0/!
1a
0b
0c
0d
0e
1f"
1e"
1c"
0`"
0]"
0f"
#336633
1!
1O!
1P!
1f
1_!
0\!
0Y!
0W!
1`!
0^!
1]!
1[!
0Z!
1Q!
1p
0o
0n
0m
1B
0C
0D
0E
0c!
0a!
0`!
1^!
0[!
1d!
1c!
1a!
0d!
#339966
0!
0O!
0P!
0f
#340000
0"
0V"
0W"
1f
#343299
1!
1O!
1P!
0f
1W!
1X!
0Q!
1m
1E
#345000
1"
1V"
1W"
1f
1Y"
1Z"
0X"
1/!
1e
#346632
0!
0O!
0P!
0f
#349965
1!
1O!
1P!
1f
1Y!
0W!
1Q!
1n
0m
1D
0E
#350000
0"
0V"
0W"
0f
#353298
0!
0O!
0P!
1f
#355000
1"
1V"
1W"
0f
1["
0Y"
1X"
10!
0/!
1d
0e
#356631
1!
1O!
1P!
1f
1W!
1Z!
0X!
0Q!
1m
1E
1[!
#359964
0!
0O!
0P!
0f
#360000
0"
0V"
0W"
1f
